//
//  Posts.Json
//  TestProject
//
//  Created by Kavya Mangala muppidi on 7/22/21.
//

{
    "content": [
        {
            "createdOn": "2021-07-21T17:19:03.011+00:00",
            "id": 1,
            "author": {
                "id": 1,
                "username": "Ruthful",
                "profileImageUrl": "https://i.pinimg.com/originals/b2/46/eb/b246eb3dad6fc9d167886f64f72acf85.jpg"
            },
            "message": "Always watching... listening... waiting...",
            "imageUrl": "https://i.imgur.com/iT62XPh.jpeg",
            "comments": {
                "content": [
                    {
                        "createdOn": "2021-07-21T17:19:03.121+00:00",
                        "id": 78,
                        "postId": 1,
                        "author": {
                            "id": 5,
                            "username": "SirDancePants",
                            "profileImageUrl": "https://encrypted-tbn0.gstatic.com/images?q=tbn:ANd9GcT-0gS3m96SRyp1fFVFiwcpG40rnFmslUm7wZNTbJLCVUavhtThQggC06BhFM2Nzq-XHlk&usqp=CAU"
                        },
                        "message": "comment V"
                    },
                    {
                        "createdOn": "2021-07-21T17:19:03.119+00:00",
                        "id": 74,
                        "postId": 1,
                        "author": {
                            "id": 10,
                            "username": "DropTheMike",
                            "profileImageUrl": "https://upload.wikimedia.org/wikipedia/commons/0/0c/Shure_mikrofon_55S.jpg"
                        },
                        "message": "comment O"
                    },
                    {
                        "createdOn": "2021-07-21T17:19:03.110+00:00",
                        "id": 66,
                        "postId": 1,
                        "author": {
                            "id": 8,
                            "username": "RyeNMarinaise",
                            "profileImageUrl": "https://indianakitchen.com/wp-content/uploads/2015/03/Ham-Sandwich.jpg"
                        },
                        "message": "comment K"
                    },
                    {
                        "createdOn": "2021-07-21T17:19:03.109+00:00",
                        "id": 62,
                        "postId": 1,
                        "author": {
                            "id": 1,
                            "username": "Ruthful",
                            "profileImageUrl": "https://i.pinimg.com/originals/b2/46/eb/b246eb3dad6fc9d167886f64f72acf85.jpg"
                        },
                        "message": "comment W"
                    },
                    {
                        "createdOn": "2021-07-21T17:19:03.093+00:00",
                        "id": 43,
                        "postId": 1,
                        "author": {
                            "id": 5,
                            "username": "SirDancePants",
                            "profileImageUrl": "https://encrypted-tbn0.gstatic.com/images?q=tbn:ANd9GcT-0gS3m96SRyp1fFVFiwcpG40rnFmslUm7wZNTbJLCVUavhtThQggC06BhFM2Nzq-XHlk&usqp=CAU"
                        },
                        "message": "comment D"
                    }
                ],
                "pageable": {
                    "sort": {
                        "sorted": true,
                        "unsorted": false,
                        "empty": false
                    },
                    "pageNumber": 0,
                    "pageSize": 5,
                    "offset": 0,
                    "paged": true,
                    "unpaged": false
                },
                "totalElements": 9,
                "totalPages": 2,
                "last": false,
                "sort": {
                    "sorted": true,
                    "unsorted": false,
                    "empty": false
                },
                "numberOfElements": 5,
                "first": true,
                "size": 5,
                "number": 0,
                "empty": false
            },
            "likeCount": 5,
            "hasLiked": false
        },
        {
            "createdOn": "2021-07-21T17:19:03.024+00:00",
            "id": 2,
            "author": {
                "id": 2,
                "username": "MrBossman",
                "profileImageUrl": "https://i.insider.com/6088f9a30da8f40018033e29?width=700"
            },
            "message": "The time is now",
            "imageUrl": "https://images.unsplash.com/photo-1625806785652-f4427c3fda40?ixlib=rb-1.2.1&ixid=MnwxMjA3fDB8MHxwaG90by1wYWdlfHx8fGVufDB8fHx8&auto=format&fit=crop&w=1234&q=80",
            "comments": {
                "content": [
                    {
                        "createdOn": "2021-07-21T17:19:03.122+00:00",
                        "id": 81,
                        "postId": 2,
                        "author": {
                            "id": 11,
                            "username": "YMCA_the_M_is_silent",
                            "profileImageUrl": "https://hawaiianpoolbuilders.com/wp-content/uploads/2018/12/pool-banner-731x344.jpg"
                        },
                        "message": "comment J"
                    },
                    {
                        "createdOn": "2021-07-21T17:19:03.122+00:00",
                        "id": 80,
                        "postId": 2,
                        "author": {
                            "id": 3,
                            "username": "OfficeFan",
                            "profileImageUrl": "https://www.slashfilm.com/wp/wp-content/images/theoffice-stevecarell-no.jpg"
                        },
                        "message": "comment K"
                    },
                    {
                        "createdOn": "2021-07-21T17:19:03.111+00:00",
                        "id": 68,
                        "postId": 2,
                        "author": {
                            "id": 7,
                            "username": "Gambler",
                            "profileImageUrl": "https://assets.simpleviewcms.com/simpleview/image/upload/c_limit,h_1200,q_75,w_1200/v1/clients/lasvegas/strip_b86ddbea-3add-4995-b449-ac85d700b027.jpg"
                        },
                        "message": "comment V"
                    },
                    {
                        "createdOn": "2021-07-21T17:19:03.107+00:00",
                        "id": 57,
                        "postId": 2,
                        "author": {
                            "id": 8,
                            "username": "RyeNMarinaise",
                            "profileImageUrl": "https://indianakitchen.com/wp-content/uploads/2015/03/Ham-Sandwich.jpg"
                        },
                        "message": "comment B"
                    },
                    {
                        "createdOn": "2021-07-21T17:19:03.106+00:00",
                        "id": 55,
                        "postId": 2,
                        "author": {
                            "id": 8,
                            "username": "RyeNMarinaise",
                            "profileImageUrl": "https://indianakitchen.com/wp-content/uploads/2015/03/Ham-Sandwich.jpg"
                        },
                        "message": "comment Z"
                    }
                ],
                "pageable": {
                    "sort": {
                        "sorted": true,
                        "unsorted": false,
                        "empty": false
                    },
                    "pageNumber": 0,
                    "pageSize": 5,
                    "offset": 0,
                    "paged": true,
                    "unpaged": false
                },
                "totalElements": 11,
                "totalPages": 3,
                "last": false,
                "sort": {
                    "sorted": true,
                    "unsorted": false,
                    "empty": false
                },
                "numberOfElements": 5,
                "first": true,
                "size": 5,
                "number": 0,
                "empty": false
            },
            "likeCount": 6,
            "hasLiked": false
        },
        {
            "createdOn": "2021-07-21T17:19:03.027+00:00",
            "id": 3,
            "author": {
                "id": 3,
                "username": "OfficeFan",
                "profileImageUrl": "https://www.slashfilm.com/wp/wp-content/images/theoffice-stevecarell-no.jpg"
            },
            "message": "Best cupcakes ever.",
            "imageUrl": "https://images.unsplash.com/photo-1625798152536-8f825de317d5?ixlib=rb-1.2.1&ixid=MnwxMjA3fDB8MHxwaG90by1wYWdlfHx8fGVufDB8fHx8&auto=format&fit=crop&w=1050&q=80",
            "comments": {
                "content": [
                    {
                        "createdOn": "2021-07-21T17:19:03.119+00:00",
                        "id": 72,
                        "postId": 3,
                        "author": {
                            "id": 5,
                            "username": "SirDancePants",
                            "profileImageUrl": "https://encrypted-tbn0.gstatic.com/images?q=tbn:ANd9GcT-0gS3m96SRyp1fFVFiwcpG40rnFmslUm7wZNTbJLCVUavhtThQggC06BhFM2Nzq-XHlk&usqp=CAU"
                        },
                        "message": "comment V"
                    },
                    {
                        "createdOn": "2021-07-21T17:19:03.108+00:00",
                        "id": 61,
                        "postId": 3,
                        "author": {
                            "id": 9,
                            "username": "MemesAreFunny",
                            "profileImageUrl": "https://pbs.twimg.com/profile_images/1258937747064094724/yGluEShZ_400x400.jpg"
                        },
                        "message": "comment F"
                    },
                    {
                        "createdOn": "2021-07-21T17:19:03.108+00:00",
                        "id": 59,
                        "postId": 3,
                        "author": {
                            "id": 5,
                            "username": "SirDancePants",
                            "profileImageUrl": "https://encrypted-tbn0.gstatic.com/images?q=tbn:ANd9GcT-0gS3m96SRyp1fFVFiwcpG40rnFmslUm7wZNTbJLCVUavhtThQggC06BhFM2Nzq-XHlk&usqp=CAU"
                        },
                        "message": "comment K"
                    },
                    {
                        "createdOn": "2021-07-21T17:19:03.106+00:00",
                        "id": 53,
                        "postId": 3,
                        "author": {
                            "id": 9,
                            "username": "MemesAreFunny",
                            "profileImageUrl": "https://pbs.twimg.com/profile_images/1258937747064094724/yGluEShZ_400x400.jpg"
                        },
                        "message": "comment V"
                    },
                    {
                        "createdOn": "2021-07-21T17:19:03.105+00:00",
                        "id": 52,
                        "postId": 3,
                        "author": {
                            "id": 7,
                            "username": "Gambler",
                            "profileImageUrl": "https://assets.simpleviewcms.com/simpleview/image/upload/c_limit,h_1200,q_75,w_1200/v1/clients/lasvegas/strip_b86ddbea-3add-4995-b449-ac85d700b027.jpg"
                        },
                        "message": "comment K"
                    }
                ],
                "pageable": {
                    "sort": {
                        "sorted": true,
                        "unsorted": false,
                        "empty": false
                    },
                    "pageNumber": 0,
                    "pageSize": 5,
                    "offset": 0,
                    "paged": true,
                    "unpaged": false
                },
                "totalElements": 9,
                "totalPages": 2,
                "last": false,
                "sort": {
                    "sorted": true,
                    "unsorted": false,
                    "empty": false
                },
                "numberOfElements": 5,
                "first": true,
                "size": 5,
                "number": 0,
                "empty": false
            },
            "likeCount": 7,
            "hasLiked": false
        },
        {
            "createdOn": "2021-07-21T17:19:03.029+00:00",
            "id": 4,
            "author": {
                "id": 4,
                "username": "StarWarsFan",
                "profileImageUrl": "https://www.cnet.com/a/img/41Pn-v6oEkbVKHocW5poKmvqaPk=/940x0/2020/12/11/01a5b2d9-0c22-4dc6-8730-5ceea3d9c79b/the-mandalorian-14-din-grogu.jpg"
            },
            "message": "New car, who dis?",
            "imageUrl": "https://images.unsplash.com/photo-1625776749978-c2e5c416d6ef?ixid=MnwxMjA3fDB8MHxwaG90by1wYWdlfHx8fGVufDB8fHx8&ixlib=rb-1.2.1&auto=format&fit=crop&w=1226&q=80",
            "comments": {
                "content": [
                    {
                        "createdOn": "2021-07-21T17:19:03.121+00:00",
                        "id": 77,
                        "postId": 4,
                        "author": {
                            "id": 9,
                            "username": "MemesAreFunny",
                            "profileImageUrl": "https://pbs.twimg.com/profile_images/1258937747064094724/yGluEShZ_400x400.jpg"
                        },
                        "message": "comment H"
                    },
                    {
                        "createdOn": "2021-07-21T17:19:03.108+00:00",
                        "id": 60,
                        "postId": 4,
                        "author": {
                            "id": 6,
                            "username": "NoFun",
                            "profileImageUrl": "https://ih1.redbubble.net/image.288465974.0256/flat,750x,075,f-pad,750x1000,f8f8f8.jpg"
                        },
                        "message": "comment A"
                    },
                    {
                        "createdOn": "2021-07-21T17:19:03.106+00:00",
                        "id": 54,
                        "postId": 4,
                        "author": {
                            "id": 4,
                            "username": "StarWarsFan",
                            "profileImageUrl": "https://www.cnet.com/a/img/41Pn-v6oEkbVKHocW5poKmvqaPk=/940x0/2020/12/11/01a5b2d9-0c22-4dc6-8730-5ceea3d9c79b/the-mandalorian-14-din-grogu.jpg"
                        },
                        "message": "comment J"
                    },
                    {
                        "createdOn": "2021-07-21T17:19:03.095+00:00",
                        "id": 47,
                        "postId": 4,
                        "author": {
                            "id": 8,
                            "username": "RyeNMarinaise",
                            "profileImageUrl": "https://indianakitchen.com/wp-content/uploads/2015/03/Ham-Sandwich.jpg"
                        },
                        "message": "comment R"
                    },
                    {
                        "createdOn": "2021-07-21T17:19:03.093+00:00",
                        "id": 42,
                        "postId": 4,
                        "author": {
                            "id": 11,
                            "username": "YMCA_the_M_is_silent",
                            "profileImageUrl": "https://hawaiianpoolbuilders.com/wp-content/uploads/2018/12/pool-banner-731x344.jpg"
                        },
                        "message": "comment M"
                    }
                ],
                "pageable": {
                    "sort": {
                        "sorted": true,
                        "unsorted": false,
                        "empty": false
                    },
                    "pageNumber": 0,
                    "pageSize": 5,
                    "offset": 0,
                    "paged": true,
                    "unpaged": false
                },
                "totalElements": 7,
                "totalPages": 2,
                "last": false,
                "sort": {
                    "sorted": true,
                    "unsorted": false,
                    "empty": false
                },
                "numberOfElements": 5,
                "first": true,
                "size": 5,
                "number": 0,
                "empty": false
            },
            "likeCount": 8,
            "hasLiked": false
        },
        {
            "createdOn": "2021-07-21T17:19:03.032+00:00",
            "id": 5,
            "author": {
                "id": 5,
                "username": "SirDancePants",
                "profileImageUrl": "https://encrypted-tbn0.gstatic.com/images?q=tbn:ANd9GcT-0gS3m96SRyp1fFVFiwcpG40rnFmslUm7wZNTbJLCVUavhtThQggC06BhFM2Nzq-XHlk&usqp=CAU"
            },
            "message": "Never knew I could hike this high...",
            "imageUrl": "https://images.unsplash.com/photo-1625485352384-9cce3988b545?ixid=MnwxMjA3fDB8MHxwaG90by1wYWdlfHx8fGVufDB8fHx8&ixlib=rb-1.2.1&auto=format&fit=crop&w=976&q=80",
            "comments": {
                "content": [
                    {
                        "createdOn": "2021-07-21T17:19:03.118+00:00",
                        "id": 69,
                        "postId": 5,
                        "author": {
                            "id": 8,
                            "username": "RyeNMarinaise",
                            "profileImageUrl": "https://indianakitchen.com/wp-content/uploads/2015/03/Ham-Sandwich.jpg"
                        },
                        "message": "comment W"
                    },
                    {
                        "createdOn": "2021-07-21T17:19:03.109+00:00",
                        "id": 64,
                        "postId": 5,
                        "author": {
                            "id": 7,
                            "username": "Gambler",
                            "profileImageUrl": "https://assets.simpleviewcms.com/simpleview/image/upload/c_limit,h_1200,q_75,w_1200/v1/clients/lasvegas/strip_b86ddbea-3add-4995-b449-ac85d700b027.jpg"
                        },
                        "message": "comment C"
                    },
                    {
                        "createdOn": "2021-07-21T17:19:03.069+00:00",
                        "id": 19,
                        "postId": 5,
                        "author": {
                            "id": 6,
                            "username": "NoFun",
                            "profileImageUrl": "https://ih1.redbubble.net/image.288465974.0256/flat,750x,075,f-pad,750x1000,f8f8f8.jpg"
                        },
                        "message": "comment E"
                    },
                    {
                        "createdOn": "2021-07-21T17:19:03.059+00:00",
                        "id": 10,
                        "postId": 5,
                        "author": {
                            "id": 5,
                            "username": "SirDancePants",
                            "profileImageUrl": "https://encrypted-tbn0.gstatic.com/images?q=tbn:ANd9GcT-0gS3m96SRyp1fFVFiwcpG40rnFmslUm7wZNTbJLCVUavhtThQggC06BhFM2Nzq-XHlk&usqp=CAU"
                        },
                        "message": "comment R"
                    },
                    {
                        "createdOn": "2021-07-21T17:19:03.052+00:00",
                        "id": 6,
                        "postId": 5,
                        "author": {
                            "id": 2,
                            "username": "MrBossman",
                            "profileImageUrl": "https://i.insider.com/6088f9a30da8f40018033e29?width=700"
                        },
                        "message": "comment N"
                    }
                ],
                "pageable": {
                    "sort": {
                        "sorted": true,
                        "unsorted": false,
                        "empty": false
                    },
                    "pageNumber": 0,
                    "pageSize": 5,
                    "offset": 0,
                    "paged": true,
                    "unpaged": false
                },
                "totalElements": 6,
                "totalPages": 2,
                "last": false,
                "sort": {
                    "sorted": true,
                    "unsorted": false,
                    "empty": false
                },
                "numberOfElements": 5,
                "first": true,
                "size": 5,
                "number": 0,
                "empty": false
            },
            "likeCount": 6,
            "hasLiked": false
        },
        {
            "createdOn": "2021-07-21T17:19:03.033+00:00",
            "id": 6,
            "author": {
                "id": 6,
                "username": "NoFun",
                "profileImageUrl": "https://ih1.redbubble.net/image.288465974.0256/flat,750x,075,f-pad,750x1000,f8f8f8.jpg"
            },
            "message": "Surprisingly empty beach",
            "imageUrl": "https://images.unsplash.com/photo-1625587585945-523e8d64e5d0?ixlib=rb-1.2.1&ixid=MnwxMjA3fDB8MHxwaG90by1wYWdlfHx8fGVufDB8fHx8&auto=format&fit=crop&w=1050&q=80",
            "comments": {
                "content": [
                    {
                        "createdOn": "2021-07-21T17:19:03.121+00:00",
                        "id": 79,
                        "postId": 6,
                        "author": {
                            "id": 11,
                            "username": "YMCA_the_M_is_silent",
                            "profileImageUrl": "https://hawaiianpoolbuilders.com/wp-content/uploads/2018/12/pool-banner-731x344.jpg"
                        },
                        "message": "comment R"
                    },
                    {
                        "createdOn": "2021-07-21T17:19:03.107+00:00",
                        "id": 58,
                        "postId": 6,
                        "author": {
                            "id": 1,
                            "username": "Ruthful",
                            "profileImageUrl": "https://i.pinimg.com/originals/b2/46/eb/b246eb3dad6fc9d167886f64f72acf85.jpg"
                        },
                        "message": "comment K"
                    },
                    {
                        "createdOn": "2021-07-21T17:19:03.074+00:00",
                        "id": 25,
                        "postId": 6,
                        "author": {
                            "id": 5,
                            "username": "SirDancePants",
                            "profileImageUrl": "https://encrypted-tbn0.gstatic.com/images?q=tbn:ANd9GcT-0gS3m96SRyp1fFVFiwcpG40rnFmslUm7wZNTbJLCVUavhtThQggC06BhFM2Nzq-XHlk&usqp=CAU"
                        },
                        "message": "comment Z"
                    }
                ],
                "pageable": {
                    "sort": {
                        "sorted": true,
                        "unsorted": false,
                        "empty": false
                    },
                    "pageNumber": 0,
                    "pageSize": 5,
                    "offset": 0,
                    "paged": true,
                    "unpaged": false
                },
                "totalElements": 3,
                "totalPages": 1,
                "last": true,
                "sort": {
                    "sorted": true,
                    "unsorted": false,
                    "empty": false
                },
                "numberOfElements": 3,
                "first": true,
                "size": 5,
                "number": 0,
                "empty": false
            },
            "likeCount": 5,
            "hasLiked": false
        }
    ],
    "pageable": {
        "sort": {
            "sorted": true,
            "unsorted": false,
            "empty": false
        },
        "pageNumber": 0,
        "pageSize": 6,
        "offset": 0,
        "paged": true,
        "unpaged": false
    },
    "totalElements": 13,
    "totalPages": 3,
    "last": false,
    "sort": {
        "sorted": true,
        "unsorted": false,
        "empty": false
    },
    "numberOfElements": 6,
    "first": true,
    "size": 6,
    "number": 0,
    "empty": false
}
